﻿"Com status";"Id";"Token end date "
"no";"00079A63";"2020-07-09 14:41:09"
"no";"00079A77";"2020-07-09 14:35:05"
"no";"00079B48";"2020-07-09 15:23:37"
"no";"00079B62";"2020-07-09 14:57:48"
"not_seen";"000C4201";"2022-03-26 10:32:43"
"no";"000F9490";""
"no";"00203819";""
"not_seen";"0020398B";"2021-07-30 13:14:45"
"not_seen";"002039A2";"2021-10-07 10:16:31"
"not_seen";"002039D6";"2021-07-28 20:01:27"
"no";"002039DB";"2020-11-14 11:46:08"
"not_seen";"00204644";"2021-09-11 11:11:43"
"not_seen";"002061C1";"2021-07-30 11:23:15"
"no";"002061C8";""
"not_seen";"002061CA";"2021-07-30 12:45:45"
"not_seen";"0020BD00";"2021-07-30 11:58:12"
"not_seen";"0020C477";"2021-08-19 16:10:43"
"not_seen";"0020C542";"2021-08-19 10:38:42"
"not_seen";"00368C42";"2022-03-26 10:57:50"
"no";"0036923E";""
"not_seen";"0037C9F5";"2021-07-09 01:26:27"
"not_seen";"0037CCEE";"2022-03-26 10:46:23"
"not_seen";"0037CCF0";"2022-06-14 10:21:18"
"no";"0037CDC8";""
"no";"00388904";"2020-11-14 11:49:11"
"no";"00388C50";""
"no";"0038AF7E";""
"not_seen";"0038AFDD";"2021-11-03 12:29:24"
"not_seen";"0038B1C1";"2021-11-04 11:52:57"
"not_seen";"0038B22E";"2022-06-30 19:12:24"
"not_seen";"00C025CD";"2022-06-29 08:46:22"
"not_seen";"00C025DD";"2022-06-29 08:46:40"
"not_seen";"00C0351F";"2021-07-10 15:56:59"
"not_seen";"00C1D195";"2021-06-29 11:31:55"
"not_seen";"00C1D3BF";"2021-08-20 14:14:39"
"not_seen";"00C1D3C6";"2022-05-04 13:39:50"
"not_seen";"00C1DC6C";"2022-06-03 11:57:22"
"not_seen";"00C1DC82";"2022-06-17 09:37:26"
"not_seen";"00C201B0";"2021-07-10 11:11:08"
"no";"01B29CFB";""
